<?xml version="1.0" encoding="utf-8"?>
<!-- Generator: Adobe Illustrator 23.0.3, SVG Export Plug-In . SVG Version: 6.00 Build 0)  -->
<svg version="1.1" id="Layer_1" xmlns="http://www.w3.org/2000/svg" xmlns:xlink="http://www.w3.org/1999/xlink" x="0px" y="0px"
	 viewBox="0 0 7.3 6" style="enable-background:new 0 0 7.3 6;" xml:space="preserve">
<g>
	<path d="M1,4.7l2-3.6h1.3l2,3.6H5.3L3.7,1.9L2.1,4.7H1z"/>
</g>
</svg>
