<svg id="Play_button" data-name="Play button" xmlns="http://www.w3.org/2000/svg" width="212" height="212" viewBox="0 0 212 212">
  <defs>
    <style>
      .cls-1, .cls-2 {
        fill: none;
        stroke: #fff;
        stroke-width: 2px;
      }

      .cls-2 {
        fill-rule: evenodd;
      }
    </style>
  </defs>
  <circle class="cls-1" cx="106" cy="106" r="105"/>
  <path id="Polygon_683" data-name="Polygon 683" class="cls-2" d="M915,460.5L839,503.994V417Z" transform="translate(-759 -353)"/>
</svg>
