<svg xmlns="http://www.w3.org/2000/svg" width="10" height="10" viewBox="0 0 10 10">
  <defs>
    <style>
      .cls-1 {
        font-size: 30px;
        fill: #030000;
        font-family: "Alternate Gothic No2 D";
        text-transform: uppercase;
      }
    </style>
  </defs>
  <text id="_" data-name="+" class="cls-1" x="-0.67" y="11.569">+</text>
</svg>
